{
    "background": {
        "value": [43, 43, 43]
    },
    "builtins": {
        "enabled": true,
        "link": "keywords",
        "value": [0, 255, 0]
    },
    "called": {
        "enabled": false,
        "link": null,
        "value": [0, 255, 255]
    },
    "called_expr": {
        "enabled": false,
        "link": "keywords",
        "value": [0, 255, 0]
    },
    "comments": {
        "enabled": true,
        "link": null,
        "value": [255, 0, 0]
    },
    "docstrings": {
        "enabled": true,
        "link": "strings",
        "value": [255, 255, 0]
    },
    "escaped": {
        "enabled": false,
        "link": "builtins",
        "value": [0, 255, 0]
    },
    "flags": {
        "enabled": false,
        "link": "normal",
        "value": [200, 200, 200]
    },
    "keywords": {
        "enabled": true,
        "link": null,
        "value": [0, 255, 0]
    },
    "maya_cmds": {
        "enabled": true,
        "link": null,
        "value": [0, 255, 255]
    },
    "mel_numbers": {
        "enabled": true,
        "link": "keywords",
        "value": [0, 255, 0]
    },
    "normal": {
        "value": [200, 200, 200]
    },
    "numbers": {
        "enabled": false,
        "link": null,
        "value": [255, 128, 0]
    },
    "operators": {
        "enabled": false,
        "link": null,
        "value": [255, 128, 255]
    },
    "proc_names": {
        "enabled": false,
        "link": null,
        "value": [0, 255, 255]
    },
    "strings": {
        "enabled": true,
        "link": null,
        "value": [255, 255, 0]
    },
    "variables": {
        "enabled": false,
        "link": null,
        "value": [200, 200, 200]
    }
}