{
    "background": {
        "value": [35, 36, 31]
    },
    "builtins": {
        "enabled": true,
        "link": null,
        "value": [248, 245, 235]
    },
    "called": {
        "enabled": true,
        "link": null,
        "value": [86, 230, 255]
    },
    "called_expr": {
        "enabled": true,
        "link": null,
        "value": [90, 225, 173]
    },
    "comments": {
        "enabled": true,
        "link": null,
        "value": [117, 113, 94]
    },
    "docstrings": {
        "enabled": true,
        "link": "strings",
        "value": [230, 219, 116]
    },
    "escaped": {
        "enabled": false,
        "link": "strings",
        "value": [230, 219, 116]
    },
    "flags": {
        "enabled": false,
        "link": "normal",
        "value": [248, 245, 235]
    },
    "keywords": {
        "enabled": true,
        "link": null,
        "value": [249, 38, 114]
    },
    "maya_cmds": {
        "enabled": true,
        "link": "called",
        "value": [86, 230, 255]
    },
    "mel_numbers": {
        "enabled": true,
        "link": "keywords",
        "value": [249, 38, 114]
    },
    "normal": {
        "value": [248, 245, 235]
    },
    "numbers": {
        "enabled": true,
        "link": null,
        "value": [174, 129, 241]
    },
    "operators": {
        "enabled": true,
        "link": "keywords",
        "value": [249, 38, 114]
    },
    "proc_names": {
        "enabled": true,
        "link": null,
        "value": [166, 226, 46]
    },
    "strings": {
        "enabled": true,
        "link": null,
        "value": [230, 219, 116]
    },
    "variables": {
        "enabled": true,
        "link": null,
        "value": [253, 149, 32]
    }
}