{
    "font_specs": {
        "shortname": "bold"
    },
    "attributes": {
        "normal": {
            "label": "Base text",
            "tooltip": "Non-highlighted text color.",
            "page": "All"
        },
        "background": {
            "label": "Background",
            "tooltip": null,
            "page": "All"
        },
        "operators": {
            "page": "All",
            "tooltip": "Flags hyphen.",
            "label": "-"
        },
        "builtins": {
            "page": "All",
            "tooltip": null,
            "label": "Arguments type"
        },
        "shortname": {
            "page": "All",
            "tooltip": null,
            "label": "Short name"
        },
        "longname": {
            "page": "All",
            "tooltip": null,
            "label": "Long name"
        }
    },
    "pages": [
        "All"
    ]
}
