{
    "args": false,
    "builtins": false,
    "called": false,
    "class_args": false,
    "class_names": false,
    "comments": false,
    "decorators": false,
    "def_names": false,
    "docstrings": true,
    "dots": false,
    "escaped": false,
    "intermediates": false,
    "keywords": true,
    "kwargs": false,
    "maya_cmds": true,
    "numbers": false,
    "operators": false,
    "python_numbers": true,
    "self": false,
    "strings": true
}